<svg width="60" height="61" viewBox="0 0 60 61" fill="none" xmlns="http://www.w3.org/2000/svg">
<path d="M20.36 16.3364L22.5573 19.083C24.0466 20.8408 24.6325 22.6841 24.3151 24.6128C24.0222 26.5415 22.7648 28.2505 20.5432 29.7397L8.45819 38.0161C6.65155 39.2368 5.83368 40.9092 6.00458 43.0332C6.12665 44.7666 6.83466 46.1704 8.1286 47.2446C9.66669 48.5142 11.3635 48.6729 13.2189 47.7207C13.3166 47.6719 13.4265 47.6108 13.5485 47.5376L45.2624 28.6411C47.0202 27.5913 48.6926 26.9321 50.2795 26.6636C51.8664 26.395 53.2214 26.4805 54.3444 26.9199C55.4675 27.3594 56.3708 28.104 57.0544 29.1538C57.738 30.2036 58.1164 31.4976 58.1896 33.0356L58.9221 48.7827C59.093 52.6646 58.3849 55.5332 56.798 57.3887C55.2355 59.2197 52.9894 60.1353 50.0598 60.1353C48.1555 60.1353 46.5319 59.5493 45.1891 58.3774C43.8464 57.1812 43.0895 55.5942 42.9186 53.6167C42.7477 51.6392 43.4557 49.3564 45.0427 46.7686L53.0627 34.3906C53.7219 33.1699 53.7951 32.1812 53.2824 31.4243C52.7941 30.6675 52.0739 30.2891 51.1218 30.2891C50.5358 30.2891 50.0598 30.3501 49.6935 30.4722C49.3273 30.5698 48.8146 30.8994 48.1555 31.4609C47.4963 32.0225 46.7394 32.877 45.8849 34.0244L33.5803 50.0645C31.5295 52.75 29.7839 54.7764 28.3434 56.1436C26.9274 57.4863 25.3893 58.4873 23.7292 59.1465C22.0934 59.8057 20.1525 60.1353 17.9064 60.1353C15.6603 60.1353 13.5241 59.5249 11.4977 58.3042C9.47137 57.0835 7.65253 55.3135 6.0412 52.9941C4.42987 50.6748 3.14813 47.6719 2.19598 43.9854C1.26825 40.2744 0.804382 36.124 0.804382 31.5342C0.804382 26.749 1.50018 22.4277 2.89178 18.5703C4.3078 14.6885 6.27313 11.4658 8.78778 8.90234C11.3268 6.31445 14.3664 4.33691 17.9064 2.96973C21.4465 1.57812 25.3405 0.882324 29.5886 0.882324C36.6931 0.882324 42.5158 1.99316 47.0568 4.21484C51.6223 6.41211 54.4787 9.50049 55.6262 13.48C55.9924 14.7007 56.0168 15.7993 55.6994 16.7759C55.4064 17.728 54.9304 18.5947 54.2712 19.376C53.612 20.1328 52.7697 20.7065 51.7443 21.0972C50.7189 21.4634 49.6813 21.6709 48.6315 21.7197C47.6061 21.7441 46.5563 21.5 45.4821 20.9873C44.4079 20.4746 43.4924 19.7178 42.7355 18.7168L34.3859 7.76709C33.092 6.10693 31.3708 4.99609 29.2224 4.43457C27.0739 3.84863 24.8522 4.00732 22.5573 4.91064C21.3122 5.44775 20.3356 6.19238 19.6276 7.14453C18.9196 8.09668 18.5168 9.10986 18.4191 10.1841C18.3459 11.2583 18.468 12.3325 18.7853 13.4067C19.1271 14.481 19.652 15.4575 20.36 16.3364Z" fill="white"/>
</svg>
