<svg width="58" height="61" viewBox="0 0 58 61" fill="none" xmlns="http://www.w3.org/2000/svg">
<path d="M48.8879 0.882324C51.1584 0.882324 53.0871 1.55371 54.674 2.89648C56.2853 4.23926 56.9811 5.98486 56.7614 8.1333L52.257 49.8447C52.1349 51.0166 51.9518 52.0664 51.7077 52.9941C51.488 53.9219 51.1218 54.8496 50.6091 55.7773C50.0964 56.7051 49.4738 57.4741 48.7414 58.0845C48.009 58.6948 47.0446 59.1831 45.8483 59.5493C44.6765 59.9399 43.3093 60.1353 41.7468 60.1353C39.3786 60.1353 37.4987 59.3662 36.1071 57.8281C34.7155 56.2656 34.0197 54.459 34.0197 52.4082C34.0197 49.332 35.3991 46.5 38.1579 43.9121L45.1159 37.3203C46.6296 35.9531 47.3864 34.4761 47.3864 32.8892C47.3864 31.9126 46.8249 31.3022 45.7018 31.0581C44.6032 30.814 43.4069 30.875 42.113 31.2412L13.6218 36.8809C12.0837 37.1982 11.0461 37.5645 10.509 37.9795C9.99628 38.3701 9.73993 38.8828 9.73993 39.5176C9.73993 39.9326 9.862 40.3721 10.1061 40.8359C10.3747 41.2998 10.6555 41.6904 10.9484 42.0078C11.2414 42.3008 11.6808 42.7402 12.2668 43.3262C12.8527 43.8877 13.3044 44.3394 13.6218 44.6812C16.0632 47.3423 17.2839 49.918 17.2839 52.4082C17.2839 54.5322 16.3806 56.3511 14.5739 57.8647C12.7917 59.3784 10.7531 60.1353 8.45819 60.1353C6.06561 60.1353 4.11249 59.3418 2.59882 57.7549C1.10956 56.1436 0.535828 53.6777 0.877625 50.3574L4.8327 13.4067C4.95477 12.186 5.13788 11.0508 5.38202 10.001C5.62616 8.95117 6.01678 7.85254 6.55389 6.70508C7.091 5.5332 7.72577 4.54443 8.45819 3.73877C9.21503 2.90869 10.2038 2.2251 11.4245 1.68799C12.6452 1.15088 14.0246 0.882324 15.5627 0.882324C18.0773 0.882324 20.0427 1.51709 21.4587 2.78662C22.8747 4.03174 23.5827 5.69189 23.5827 7.76709C23.5827 9.40283 23.1677 10.9043 22.3376 12.2715C21.5319 13.6387 20.4577 14.7129 19.1149 15.4941L10.5456 20.3647C9.49579 20.9751 8.78778 21.5732 8.42157 22.1592C8.07977 22.7451 7.90887 23.4287 7.90887 24.21C7.90887 25.1865 8.2995 25.9434 9.08075 26.4805C9.88641 27.0176 10.9484 27.2861 12.2668 27.2861H44.1638C45.7507 27.2861 46.947 27.0664 47.7526 26.627C48.5827 26.1631 49.1076 25.4062 49.3273 24.3564C49.4738 24.0146 49.4982 23.6362 49.4006 23.2212C49.3273 22.8062 49.2785 22.501 49.2541 22.3057C49.2297 22.1104 49.0954 21.854 48.8513 21.5366C48.6071 21.2192 48.4118 20.9873 48.2653 20.8408C48.1432 20.6943 47.9235 20.4624 47.6061 20.145C47.3132 19.8276 47.0812 19.5835 46.9103 19.4126L43.6877 15.7139C41.2463 12.8574 40.0256 10.3916 40.0256 8.31641C40.0256 6.11914 40.7702 4.33691 42.2595 2.96973C43.7731 1.57812 45.9826 0.882324 48.8879 0.882324Z" fill="white"/>
</svg>
