<svg width="59" height="61" viewBox="0 0 59 61" fill="none" xmlns="http://www.w3.org/2000/svg">
<path d="M10.8386 60.1353C9.76434 60.1353 8.78778 60.0376 7.90887 59.8423C7.02997 59.647 6.26093 59.3906 5.60175 59.0732C4.94257 58.7803 4.35663 58.3408 3.84393 57.7549C3.35565 57.1689 2.94061 56.6074 2.59882 56.0703C2.28143 55.5332 2.00067 54.8008 1.75653 53.873C1.5368 52.9453 1.3537 52.1152 1.20721 51.3828C1.08514 50.6504 0.987488 49.6738 0.914246 48.4531C0.865417 47.208 0.828796 46.146 0.804382 45.2671C0.804382 44.3882 0.804382 43.2163 0.804382 41.7515V21.5C0.804382 18.1309 0.950867 15.2622 1.24384 12.894C1.5368 10.5015 1.96405 8.52393 2.52557 6.96143C3.0871 5.39893 3.84393 4.17822 4.79608 3.29932C5.77264 2.396 6.84686 1.77344 8.01874 1.43164C9.21503 1.06543 10.6555 0.882324 12.34 0.882324C13.5119 0.882324 14.6105 1.07764 15.6359 1.46826C16.6857 1.85889 17.6135 2.34717 18.4191 2.93311C19.2248 3.49463 20.0915 4.33691 21.0192 5.45996C21.947 6.55859 22.7526 7.6084 23.4362 8.60938C24.1442 9.58594 25.0231 10.9043 26.0729 12.5645L43.8342 40.3965C44.7375 41.8369 45.4943 42.8501 46.1047 43.436C46.7394 44.022 47.3864 44.3149 48.0456 44.3149C49.9011 44.3149 50.8288 43.4849 50.8288 41.8247C50.8288 40.7505 50.3039 38.895 49.2541 36.2583L42.3327 18.4971C41.7712 17.0322 41.3439 15.6406 41.051 14.3223C40.7824 12.9795 40.6359 12.1006 40.6115 11.6855C40.6115 11.2461 40.6115 10.5137 40.6115 9.48828C40.6115 8.46289 40.7458 7.47412 41.0143 6.52197C41.3073 5.54541 41.759 4.61768 42.3693 3.73877C42.9797 2.85986 43.8464 2.15186 44.9694 1.61475C46.0925 1.07764 47.3986 0.809082 48.8879 0.809082C50.6701 0.809082 52.2082 1.21191 53.5021 2.01758C54.7961 2.82324 55.7604 3.92188 56.3952 5.31348C57.0544 6.68066 57.4938 8.18213 57.7136 9.81787C57.9577 11.4292 57.9821 13.126 57.7868 14.9082L53.9782 49.625C53.5632 53.2627 52.6965 55.9238 51.3781 57.6084C50.0842 59.293 48.2287 60.1353 45.8117 60.1353C45.0549 60.1353 44.3591 60.062 43.7243 59.9155C43.0895 59.769 42.4304 59.4639 41.7468 59C41.0632 58.5117 40.4772 58.0601 39.989 57.645C39.5251 57.23 38.8781 56.522 38.048 55.521C37.2424 54.52 36.571 53.6655 36.0339 52.9575C35.5212 52.2251 34.7033 51.0898 33.5803 49.5518L21.1291 32.3032C19.3713 29.8618 17.9553 27.1274 16.881 24.1001C15.8068 21.0728 15.5016 18.1309 15.9655 15.2744L16.6247 10.9897C16.8932 9.18311 16.5881 7.7793 15.7092 6.77832C14.8303 5.75293 13.6584 5.24023 12.1935 5.24023C10.1183 5.24023 8.4826 5.92383 7.28632 7.29102C6.11444 8.6582 5.5285 10.4404 5.5285 12.6377C5.5285 13.6631 5.66278 14.896 5.93134 16.3364C6.2243 17.7769 6.54169 18.9243 6.88348 19.7788L17.0641 44.7544C17.9186 46.854 18.4435 48.8315 18.6389 50.687C18.8342 52.5181 18.6999 54.1416 18.236 55.5576C17.7966 56.9736 16.9421 58.0967 15.6725 58.9268C14.4274 59.7324 12.8161 60.1353 10.8386 60.1353Z" fill="white"/>
</svg>
