<svg width="56" height="61" viewBox="0 0 56 61" fill="none" xmlns="http://www.w3.org/2000/svg">
<g filter="url(#filter0_iii_1_77)">
<path d="M24.2827 60.062C20.8159 60.062 17.6787 59.708 14.8711 59C12.0879 58.292 9.79297 57.3521 7.98633 56.1802C6.17969 54.9839 4.66602 53.5923 3.44531 52.0054C2.24902 50.394 1.39453 48.7583 0.881836 47.0981C0.393555 45.4136 0.149414 43.6558 0.149414 41.8247C0.149414 40.3354 0.33252 38.9438 0.69873 37.6499C1.08936 36.356 1.76074 35.2451 2.71289 34.3174C3.68945 33.3652 4.88574 32.8892 6.30176 32.8892C8.03516 32.8892 9.43896 33.5117 10.5132 34.7568C11.6118 36.002 12.1611 37.4546 12.1611 39.1147V51.8589C12.1611 53.7632 12.7227 55.0449 13.8457 55.7041C14.9688 56.3389 16.6533 56.168 18.8994 55.1914L45.1567 42.4839C47.3296 41.4341 48.7212 40.6284 49.3315 40.0669C50.2593 39.2124 50.5645 38.1992 50.2471 37.0273C49.9053 35.6846 49.1973 34.8667 48.123 34.5737C47.0488 34.2563 45.877 34.4272 44.6074 35.0864L28.7139 42.4106C26.2969 43.4604 24.1973 43.7534 22.415 43.2896C20.6328 42.8013 19.229 41.8491 18.2036 40.4331C17.1782 39.0171 16.6411 37.3813 16.5923 35.5259L16.4824 32.6694C16.458 31.3755 16.1528 30.5088 15.5669 30.0693C15.0054 29.6299 13.8945 29.2271 12.2344 28.8608L7.51025 27.7256C5.99658 27.3594 4.76367 26.5293 3.81152 25.2354C2.85938 23.917 2.3833 22.4766 2.3833 20.9141C2.3833 17.7646 3.14014 14.896 4.65381 12.3081C6.19189 9.6958 8.21826 7.57178 10.7329 5.93604C13.2476 4.27588 16.0674 2.99414 19.1924 2.09082C22.3418 1.1875 25.5889 0.73584 28.9336 0.73584C31.5947 0.73584 34.146 0.967773 36.5874 1.43164C39.0532 1.87109 41.397 2.59131 43.6187 3.59229C45.8403 4.56885 47.769 5.78955 49.4048 7.25439C51.0405 8.69482 52.3345 10.4893 53.2866 12.6377C54.2632 14.7861 54.7515 17.1665 54.7515 19.7788C54.7515 22.5376 54.2144 24.7349 53.1401 26.3706C52.0659 27.9819 50.4546 28.7876 48.3062 28.7876C47.6958 28.7876 47.0732 28.6777 46.4385 28.458C45.8037 28.2383 45.23 27.8843 44.7173 27.396C44.2046 26.9077 43.814 26.3218 43.5454 25.6382C43.3013 24.9546 43.2891 24.1123 43.5088 23.1113C43.7285 22.0859 44.229 20.9995 45.0103 19.8521L48.3062 14.9082C48.7456 14.2002 48.9409 13.5532 48.8921 12.9673C48.8433 12.3813 48.6235 11.9541 48.2329 11.6855C47.2808 11.002 45.5229 10.9287 42.9595 11.4658L10.6597 18.4238C7.87646 18.9854 6.61914 20.2061 6.8877 22.0859C6.98535 22.8916 7.30273 23.502 7.83984 23.917C8.40137 24.332 9.29248 24.6494 10.5132 24.8691L48.6724 31.7905C50.7476 32.1323 52.3223 32.9746 53.3965 34.3174C54.4951 35.6357 55.0444 37.2349 55.0444 39.1147C55.0444 41.7026 54.2388 44.2661 52.6274 46.8052C51.0161 49.3198 48.8555 51.5537 46.1455 53.5068C43.4355 55.46 40.1519 57.0469 36.2944 58.2676C32.4614 59.4639 28.4575 60.062 24.2827 60.062Z" fill="black" fill-opacity="0.2"/>
</g>
<defs>
<filter id="filter0_iii_1_77" x="-3.85059" y="-1.26416" width="61.895" height="70.3262" filterUnits="userSpaceOnUse" color-interpolation-filters="sRGB">
<feFlood flood-opacity="0" result="BackgroundImageFix"/>
<feBlend mode="normal" in="SourceGraphic" in2="BackgroundImageFix" result="shape"/>
<feColorMatrix in="SourceAlpha" type="matrix" values="0 0 0 0 0 0 0 0 0 0 0 0 0 0 0 0 0 0 127 0" result="hardAlpha"/>
<feOffset dy="-2"/>
<feGaussianBlur stdDeviation="5"/>
<feComposite in2="hardAlpha" operator="arithmetic" k2="-1" k3="1"/>
<feColorMatrix type="matrix" values="0 0 0 0 0.0196078 0 0 0 0 0.843137 0 0 0 0 0.843137 0 0 0 1 0"/>
<feBlend mode="normal" in2="shape" result="effect1_innerShadow_1_77"/>
<feColorMatrix in="SourceAlpha" type="matrix" values="0 0 0 0 0 0 0 0 0 0 0 0 0 0 0 0 0 0 127 0" result="hardAlpha"/>
<feOffset dx="3" dy="10"/>
<feGaussianBlur stdDeviation="4.5"/>
<feComposite in2="hardAlpha" operator="arithmetic" k2="-1" k3="1"/>
<feColorMatrix type="matrix" values="0 0 0 0 0.568627 0 0 0 0 0.0705882 0 0 0 0 0.160235 0 0 0 1 0"/>
<feBlend mode="normal" in2="effect1_innerShadow_1_77" result="effect2_innerShadow_1_77"/>
<feColorMatrix in="SourceAlpha" type="matrix" values="0 0 0 0 0 0 0 0 0 0 0 0 0 0 0 0 0 0 127 0" result="hardAlpha"/>
<feOffset dx="-4"/>
<feGaussianBlur stdDeviation="2.5"/>
<feComposite in2="hardAlpha" operator="arithmetic" k2="-1" k3="1"/>
<feColorMatrix type="matrix" values="0 0 0 0 1 0 0 0 0 0.546587 0 0 0 0 0.220833 0 0 0 1 0"/>
<feBlend mode="normal" in2="effect2_innerShadow_1_77" result="effect3_innerShadow_1_77"/>
</filter>
</defs>
</svg>
