<svg width="57" height="59" viewBox="0 0 57 59" fill="none" xmlns="http://www.w3.org/2000/svg">
<g filter="url(#filter0_iii_1_120)">
<path d="M7.68213 0.0175781H33.7197C41.6299 0.0175781 47.3794 2.45898 50.9683 7.3418C54.5815 12.2002 56.3882 19.3779 56.3882 28.875C56.3882 48.4062 45.1089 58.1353 22.5503 58.062C19.4253 58.062 16.6299 57.5859 14.1641 56.6338C11.6982 55.6816 9.7085 54.3999 8.19482 52.7886C6.68115 51.1772 5.48486 49.2852 4.60596 47.1123C3.75146 44.9395 3.2876 42.6323 3.21436 40.1909C3.14111 37.7251 3.39746 35.186 3.9834 32.5737C4.56934 29.9614 5.48486 27.3979 6.72998 24.8833L9.51318 19.2803C10.0991 17.9619 10.1357 16.9854 9.62305 16.3506C9.13477 15.6914 8.02393 15.2153 6.29053 14.9224C4.26416 14.5806 2.72607 13.7749 1.67627 12.5054C0.650879 11.2358 0.138184 9.69775 0.138184 7.89111C0.138184 5.7915 0.80957 3.96045 2.15234 2.39795C3.49512 0.811035 5.33838 0.0175781 7.68213 0.0175781ZM33.7197 49.7124L46.6836 18.438C47.6357 15.9966 47.8433 13.9824 47.3062 12.3955C46.7935 10.8086 45.7681 9.67334 44.23 8.98975C42.7163 8.30615 40.9951 8.15967 39.0664 8.55029L20.3164 12.1392C14.0908 13.311 11.7104 16.5337 13.1753 21.8071L20.9023 48.98C21.415 50.811 22.2695 52.1904 23.4658 53.1182C24.6865 54.0215 25.9438 54.4365 27.2378 54.3633C28.5562 54.29 29.8257 53.8384 31.0464 53.0083C32.2671 52.1782 33.1582 51.0796 33.7197 49.7124Z" fill="black" fill-opacity="0.2"/>
</g>
<defs>
<filter id="filter0_iii_1_120" x="-3.86182" y="-1.98242" width="63.25" height="69.1543" filterUnits="userSpaceOnUse" color-interpolation-filters="sRGB">
<feFlood flood-opacity="0" result="BackgroundImageFix"/>
<feBlend mode="normal" in="SourceGraphic" in2="BackgroundImageFix" result="shape"/>
<feColorMatrix in="SourceAlpha" type="matrix" values="0 0 0 0 0 0 0 0 0 0 0 0 0 0 0 0 0 0 127 0" result="hardAlpha"/>
<feOffset dy="-2"/>
<feGaussianBlur stdDeviation="5"/>
<feComposite in2="hardAlpha" operator="arithmetic" k2="-1" k3="1"/>
<feColorMatrix type="matrix" values="0 0 0 0 0.0196078 0 0 0 0 0.843137 0 0 0 0 0.843137 0 0 0 1 0"/>
<feBlend mode="normal" in2="shape" result="effect1_innerShadow_1_120"/>
<feColorMatrix in="SourceAlpha" type="matrix" values="0 0 0 0 0 0 0 0 0 0 0 0 0 0 0 0 0 0 127 0" result="hardAlpha"/>
<feOffset dx="3" dy="10"/>
<feGaussianBlur stdDeviation="4.5"/>
<feComposite in2="hardAlpha" operator="arithmetic" k2="-1" k3="1"/>
<feColorMatrix type="matrix" values="0 0 0 0 0.568627 0 0 0 0 0.0705882 0 0 0 0 0.160235 0 0 0 1 0"/>
<feBlend mode="normal" in2="effect1_innerShadow_1_120" result="effect2_innerShadow_1_120"/>
<feColorMatrix in="SourceAlpha" type="matrix" values="0 0 0 0 0 0 0 0 0 0 0 0 0 0 0 0 0 0 127 0" result="hardAlpha"/>
<feOffset dx="-4"/>
<feGaussianBlur stdDeviation="2.5"/>
<feComposite in2="hardAlpha" operator="arithmetic" k2="-1" k3="1"/>
<feColorMatrix type="matrix" values="0 0 0 0 1 0 0 0 0 0.546587 0 0 0 0 0.220833 0 0 0 1 0"/>
<feBlend mode="normal" in2="effect2_innerShadow_1_120" result="effect3_innerShadow_1_120"/>
</filter>
</defs>
</svg>
