<svg width="56" height="61" viewBox="0 0 56 61" fill="none" xmlns="http://www.w3.org/2000/svg">
<path d="M12.2456 41.9712L31.6182 41.5317C33.9863 41.4829 35.7808 41.1289 37.0015 40.4697C38.2466 39.8105 38.9668 38.5898 39.1621 36.8076L42.3848 10.2573C42.6289 8.20654 42.3115 6.59521 41.4326 5.42334C40.5537 4.25146 39.3208 3.81201 37.7339 4.10498C37.0015 4.25146 36.269 4.64209 35.5366 5.27686C34.8286 5.88721 34.1206 6.76611 33.4126 7.91357C32.729 9.03662 32.2529 9.85449 31.9844 10.3672C31.7158 10.8555 31.313 11.6367 30.7759 12.7109L21.6938 31.3145C20.937 32.8525 19.9604 34.0977 18.7642 35.0498C17.5923 35.9775 16.4937 36.5757 15.4683 36.8442C14.4673 37.1128 13.4175 37.2471 12.3188 37.2471C10.0972 37.2471 8.20508 36.4414 6.64258 34.8301C5.08008 33.2188 4.29883 31.2534 4.29883 28.9341C4.29883 26.0532 6.20312 23.0747 10.0117 19.9985L25.063 7.98682C28.6274 5.15479 31.2886 3.2627 33.0464 2.31055C34.8286 1.3584 36.8672 0.882324 39.1621 0.882324C41.3838 0.882324 43.2393 1.62695 44.7285 3.11621C46.2178 4.58105 47.2188 6.60742 47.7314 9.19531L54.543 45.2671C55.373 49.6616 55.0557 53.2383 53.5908 55.9971C52.1504 58.7559 49.5747 60.1353 45.8638 60.1353C42.9341 60.1353 40.688 59.3296 39.1255 57.7183C37.563 56.1069 36.7817 54.0806 36.7817 51.6392V47.7573C36.7817 45.7554 36.3057 44.5591 35.3535 44.1685C34.4258 43.7778 33.3027 44.1685 31.9844 45.3403L24.6235 51.6392C24.4038 51.8101 23.8789 52.2617 23.0488 52.9941C22.2188 53.7266 21.584 54.2759 21.1445 54.6421C20.7051 55.0083 20.0459 55.521 19.167 56.1802C18.3125 56.8394 17.5435 57.3643 16.8599 57.7549C16.2007 58.1211 15.4438 58.5117 14.5894 58.9268C13.7349 59.3418 12.8804 59.647 12.0259 59.8423C11.1714 60.0376 10.3169 60.1353 9.4624 60.1353C8.31494 60.1353 7.21631 59.9644 6.1665 59.6226C5.1167 59.2808 4.12793 58.7559 3.2002 58.0479C2.29688 57.3398 1.57666 56.3511 1.03955 55.0815C0.502441 53.7876 0.233887 52.2983 0.233887 50.6138C0.233887 47.7817 1.34473 45.6577 3.56641 44.2417C5.78809 42.8013 8.68115 42.0444 12.2456 41.9712Z" fill="white"/>
</svg>
