<svg width="60" height="61" viewBox="0 0 60 61" fill="none" xmlns="http://www.w3.org/2000/svg">
<g filter="url(#filter0_iii_1_72)">
<path d="M12.1865 0.882324C14.0176 0.882324 15.4458 1.32178 16.4712 2.20068C17.4966 3.07959 18.0581 4.19043 18.1558 5.5332C18.2778 6.87598 18.0459 8.35303 17.46 9.96436C16.874 11.5757 15.9707 13.1016 14.75 14.542L13.5415 15.9336C11.1733 18.8633 10.4775 21.0972 11.4541 22.6353C11.918 23.3921 12.4307 23.9048 12.9922 24.1733C13.5781 24.4175 14.2373 24.4297 14.9697 24.21C15.7021 23.9658 16.4224 23.6362 17.1304 23.2212C17.8384 22.7817 18.7173 22.1592 19.7671 21.3535L39.3594 6.48535C42.0449 4.45898 44.291 3.01855 46.0977 2.16406C47.9287 1.30957 49.9307 0.882324 52.1035 0.882324C54.1787 0.882324 55.8755 1.85889 57.1938 3.81201C58.5122 5.76514 58.9883 7.88916 58.6221 10.1841C58.1826 12.7231 57.1328 14.6396 55.4727 15.9336C53.8369 17.2031 51.2612 18.2285 47.7456 19.0098L24.2715 24.1367C24.0518 24.1855 23.6733 24.2588 23.1362 24.3564C22.5991 24.4541 22.1963 24.5396 21.9277 24.6128C21.6592 24.6616 21.2808 24.7471 20.7925 24.8691C20.3042 24.9668 19.9258 25.0645 19.6572 25.1621C19.3887 25.2598 19.0713 25.394 18.7051 25.5649C18.3389 25.7358 18.0459 25.9067 17.8262 26.0776C17.6309 26.2485 17.4478 26.4561 17.2769 26.7002C17.1304 26.9199 17.0327 27.1641 16.9839 27.4326C16.6421 29.4102 17.5942 30.936 19.8403 32.0103L45.9512 44.5347C47.001 45.0474 47.9409 44.8765 48.771 44.022C49.6255 43.1675 49.8818 42.1909 49.54 41.0923L46.7568 32.0103C46.2686 30.3989 46.3906 29.105 47.123 28.1284C47.8799 27.1274 48.8931 26.5903 50.1626 26.5171C51.603 26.4683 52.8237 26.9688 53.8247 28.0186C54.8501 29.0684 55.2285 30.5698 54.96 32.5229L52.25 51.2729C51.8105 54.2759 50.7119 56.5098 48.9541 57.9746C47.1963 59.415 45.0967 60.1353 42.6553 60.1353C42.0449 60.1353 41.459 60.0742 40.8975 59.9521C40.3604 59.8545 39.8721 59.7324 39.4326 59.5859C39.0176 59.4395 38.5659 59.1953 38.0776 58.8535C37.5894 58.5117 37.1865 58.2188 36.8691 57.9746C36.5518 57.7061 36.1245 57.291 35.5874 56.7295C35.0747 56.1436 34.6719 55.6919 34.3789 55.3745C34.1104 55.0327 33.6465 54.4712 32.9873 53.6899C32.3525 52.8843 31.8521 52.2739 31.4858 51.8589L10.9414 27.4326C10.2334 26.6025 9.46436 26.1021 8.63428 25.9312C7.82861 25.7603 7.18164 25.8945 6.69336 26.334C6.20508 26.749 5.8877 27.3105 5.74121 28.0186C5.59473 28.7266 5.82666 29.5566 6.43701 30.5088L15.812 44.8276C17.5454 47.3911 18.168 50.1621 17.6797 53.1406C17.3379 55.0938 16.3125 56.7539 14.6035 58.1211C12.8945 59.4639 10.7705 60.1353 8.23145 60.1353C5.57031 60.1353 3.56836 59.2319 2.22559 57.4253C0.882812 55.5942 0.309082 53.043 0.504395 49.7715L3.14111 10.5503C3.38525 7.22998 4.34961 4.78857 6.03418 3.22607C7.74316 1.66357 9.79395 0.882324 12.1865 0.882324Z" fill="black" fill-opacity="0.2"/>
</g>
<defs>
<filter id="filter0_iii_1_72" x="-3.78857" y="-1.11768" width="65.96" height="70.2529" filterUnits="userSpaceOnUse" color-interpolation-filters="sRGB">
<feFlood flood-opacity="0" result="BackgroundImageFix"/>
<feBlend mode="normal" in="SourceGraphic" in2="BackgroundImageFix" result="shape"/>
<feColorMatrix in="SourceAlpha" type="matrix" values="0 0 0 0 0 0 0 0 0 0 0 0 0 0 0 0 0 0 127 0" result="hardAlpha"/>
<feOffset dy="-2"/>
<feGaussianBlur stdDeviation="5"/>
<feComposite in2="hardAlpha" operator="arithmetic" k2="-1" k3="1"/>
<feColorMatrix type="matrix" values="0 0 0 0 0.0196078 0 0 0 0 0.843137 0 0 0 0 0.843137 0 0 0 1 0"/>
<feBlend mode="normal" in2="shape" result="effect1_innerShadow_1_72"/>
<feColorMatrix in="SourceAlpha" type="matrix" values="0 0 0 0 0 0 0 0 0 0 0 0 0 0 0 0 0 0 127 0" result="hardAlpha"/>
<feOffset dx="3" dy="10"/>
<feGaussianBlur stdDeviation="4.5"/>
<feComposite in2="hardAlpha" operator="arithmetic" k2="-1" k3="1"/>
<feColorMatrix type="matrix" values="0 0 0 0 0.568627 0 0 0 0 0.0705882 0 0 0 0 0.160235 0 0 0 1 0"/>
<feBlend mode="normal" in2="effect1_innerShadow_1_72" result="effect2_innerShadow_1_72"/>
<feColorMatrix in="SourceAlpha" type="matrix" values="0 0 0 0 0 0 0 0 0 0 0 0 0 0 0 0 0 0 127 0" result="hardAlpha"/>
<feOffset dx="-4"/>
<feGaussianBlur stdDeviation="2.5"/>
<feComposite in2="hardAlpha" operator="arithmetic" k2="-1" k3="1"/>
<feColorMatrix type="matrix" values="0 0 0 0 1 0 0 0 0 0.546587 0 0 0 0 0.220833 0 0 0 1 0"/>
<feBlend mode="normal" in2="effect2_innerShadow_1_72" result="effect3_innerShadow_1_72"/>
</filter>
</defs>
</svg>
