<svg width="26" height="61" viewBox="0 0 26 61" fill="none" xmlns="http://www.w3.org/2000/svg">
<g filter="url(#filter0_iii_1_125)">
<path d="M0.00292969 18.6436C0.00292969 17.7646 1.1748 15.9702 3.51855 13.2603L12.0146 3.48242C13.5283 1.74902 15.4937 0.882324 17.9106 0.882324C19.937 0.882324 21.6948 1.5293 23.1841 2.82324C24.6733 4.11719 25.418 5.83838 25.418 7.98682C25.418 9.96436 24.8809 11.5269 23.8066 12.6743C22.7568 13.7974 21.2432 14.7129 19.2656 15.4209L11.0259 18.2773C10.0737 18.5703 9.59766 19.144 9.59766 19.9985C9.59766 20.9507 10.2446 21.3535 11.5386 21.207L16.6655 20.5845C19.1069 20.2915 21.0234 20.6943 22.415 21.793C23.8311 22.8672 24.4902 24.3442 24.3926 26.2241C24.2949 28.0796 23.4404 29.9351 21.8291 31.7905L7.51025 48.1235C6.46045 49.2954 5.93555 50.1987 5.93555 50.8335C5.93555 51.6147 6.2041 52.2495 6.74121 52.7378C7.30273 53.2017 7.92529 53.2871 8.60889 52.9941L17.6177 49.1123C18.4233 48.7705 19.2168 48.563 19.998 48.4897C20.8037 48.3921 21.5605 48.4531 22.2686 48.6729C22.9766 48.8926 23.5625 49.332 24.0264 49.9912C24.5146 50.6504 24.8076 51.5049 24.9053 52.5547C25.0762 54.1416 24.6123 55.5332 23.5137 56.7295C22.415 57.9014 20.999 58.7559 19.2656 59.293C17.5322 59.8545 15.6646 60.1353 13.6626 60.1353C9.46338 60.1353 6.39941 58.8901 4.4707 56.3999C2.56641 53.8853 2.12695 50.7236 3.15234 46.915L9.23145 24.7227C9.37793 24.21 9.45117 23.7583 9.45117 23.3677C9.45117 22.5376 9.146 21.9517 8.53564 21.6099C7.92529 21.2437 6.98535 21.0605 5.71582 21.0605H2.49316C0.833008 21.0605 0.00292969 20.2549 0.00292969 18.6436Z" fill="black" fill-opacity="0.2"/>
</g>
<defs>
<filter id="filter0_iii_1_125" x="-3.99707" y="-1.11768" width="32.415" height="70.2529" filterUnits="userSpaceOnUse" color-interpolation-filters="sRGB">
<feFlood flood-opacity="0" result="BackgroundImageFix"/>
<feBlend mode="normal" in="SourceGraphic" in2="BackgroundImageFix" result="shape"/>
<feColorMatrix in="SourceAlpha" type="matrix" values="0 0 0 0 0 0 0 0 0 0 0 0 0 0 0 0 0 0 127 0" result="hardAlpha"/>
<feOffset dy="-2"/>
<feGaussianBlur stdDeviation="5"/>
<feComposite in2="hardAlpha" operator="arithmetic" k2="-1" k3="1"/>
<feColorMatrix type="matrix" values="0 0 0 0 0.0196078 0 0 0 0 0.843137 0 0 0 0 0.843137 0 0 0 1 0"/>
<feBlend mode="normal" in2="shape" result="effect1_innerShadow_1_125"/>
<feColorMatrix in="SourceAlpha" type="matrix" values="0 0 0 0 0 0 0 0 0 0 0 0 0 0 0 0 0 0 127 0" result="hardAlpha"/>
<feOffset dx="3" dy="10"/>
<feGaussianBlur stdDeviation="4.5"/>
<feComposite in2="hardAlpha" operator="arithmetic" k2="-1" k3="1"/>
<feColorMatrix type="matrix" values="0 0 0 0 0.568627 0 0 0 0 0.0705882 0 0 0 0 0.160235 0 0 0 1 0"/>
<feBlend mode="normal" in2="effect1_innerShadow_1_125" result="effect2_innerShadow_1_125"/>
<feColorMatrix in="SourceAlpha" type="matrix" values="0 0 0 0 0 0 0 0 0 0 0 0 0 0 0 0 0 0 127 0" result="hardAlpha"/>
<feOffset dx="-4"/>
<feGaussianBlur stdDeviation="2.5"/>
<feComposite in2="hardAlpha" operator="arithmetic" k2="-1" k3="1"/>
<feColorMatrix type="matrix" values="0 0 0 0 1 0 0 0 0 0.546587 0 0 0 0 0.220833 0 0 0 1 0"/>
<feBlend mode="normal" in2="effect2_innerShadow_1_125" result="effect3_innerShadow_1_125"/>
</filter>
</defs>
</svg>
