<svg width="58" height="61" viewBox="0 0 58 61" fill="none" xmlns="http://www.w3.org/2000/svg">
<g filter="url(#filter0_iii_0_1)">
<path d="M10.1174 60.125C18.2174 60.125 19.7174 53.075 16.3424 44.75L6.14238 19.775C5.46738 18.125 4.79238 14.75 4.79238 12.65C4.79238 8.375 7.26738 5.225 11.4674 5.225C14.1674 5.225 16.4924 7.175 15.8924 11L15.2174 15.275C14.2424 21.5 17.3924 28.175 20.3924 32.3L32.8424 49.55C38.1674 56.9 40.4924 60.125 45.0674 60.125C49.9424 60.125 52.4174 56.825 53.2424 49.625L57.0674 14.9C57.8174 8 55.5674 0.799998 48.1424 0.799998C41.8424 0.799998 39.8924 5.675 39.8924 9.5C39.8924 11.3 39.7424 13.7 41.6174 18.5L48.5174 36.275C49.4924 38.75 50.0924 40.475 50.0924 41.825C50.0924 43.475 49.1924 44.3 47.3174 44.3C45.9674 44.3 44.9174 43.25 43.1174 40.4L25.3424 12.575C20.8424 5.525 17.5424 0.874997 11.6174 0.874997C3.59238 0.874997 0.067383 4.625 0.0673829 21.5L0.0673828 41.75C0.0673828 52.625 0.292383 60.125 10.1174 60.125Z" fill="black" fill-opacity="0.2"/>
</g>
<defs>
<filter id="filter0_iii_0_1" x="-137.837" y="-1.19995" width="402.625" height="72.9072" filterUnits="userSpaceOnUse" color-interpolation-filters="sRGB">
<feFlood flood-opacity="0" result="BackgroundImageFix"/>
<feBlend mode="normal" in="SourceGraphic" in2="BackgroundImageFix" result="shape"/>
<feColorMatrix in="SourceAlpha" type="matrix" values="0 0 0 0 0 0 0 0 0 0 0 0 0 0 0 0 0 0 127 0" result="hardAlpha"/>
<feOffset dy="-2"/>
<feGaussianBlur stdDeviation="5"/>
<feComposite in2="hardAlpha" operator="arithmetic" k2="-1" k3="1"/>
<feColorMatrix type="matrix" values="0 0 0 0 0.0196078 0 0 0 0 0.843137 0 0 0 0 0.843137 0 0 0 1 0"/>
<feBlend mode="normal" in2="shape" result="effect1_innerShadow_0_1"/>
<feColorMatrix in="SourceAlpha" type="matrix" values="0 0 0 0 0 0 0 0 0 0 0 0 0 0 0 0 0 0 127 0" result="hardAlpha"/>
<feOffset dx="3" dy="10"/>
<feGaussianBlur stdDeviation="4.5"/>
<feComposite in2="hardAlpha" operator="arithmetic" k2="-1" k3="1"/>
<feColorMatrix type="matrix" values="0 0 0 0 0.568627 0 0 0 0 0.0705882 0 0 0 0 0.160235 0 0 0 1 0"/>
<feBlend mode="normal" in2="effect1_innerShadow_0_1" result="effect2_innerShadow_0_1"/>
<feColorMatrix in="SourceAlpha" type="matrix" values="0 0 0 0 0 0 0 0 0 0 0 0 0 0 0 0 0 0 127 0" result="hardAlpha"/>
<feOffset dx="-4"/>
<feGaussianBlur stdDeviation="2.5"/>
<feComposite in2="hardAlpha" operator="arithmetic" k2="-1" k3="1"/>
<feColorMatrix type="matrix" values="0 0 0 0 1 0 0 0 0 0.546587 0 0 0 0 0.220833 0 0 0 1 0"/>
<feBlend mode="normal" in2="effect2_innerShadow_0_1" result="effect3_innerShadow_0_1"/>
</filter>
</defs>
</svg>
