<svg width="33" height="36" viewBox="0 0 33 36" fill="none" xmlns="http://www.w3.org/2000/svg">
<path d="M9.10008 0.95637C3.25008 0.95637 0.505078 4.69137 0.505078 9.73137L0.505078 29.1264C0.505078 34.7964 3.34008 35.8314 6.44508 35.8314C9.91008 35.8314 11.8451 34.4814 11.8451 31.3314C11.8451 29.1264 11.0801 27.4164 9.23508 25.3014L3.70008 19.0914C2.53008 17.7864 2.30508 15.8064 3.52008 14.4564C4.91508 12.9264 7.03008 13.0164 8.15508 14.4564L13.3301 21.2514C16.3451 25.2114 19.0001 26.7864 22.8701 26.7864C29.6651 26.7864 32.5001 21.7014 32.5001 14.9514C32.5001 5.81637 28.1351 0.95637 18.2801 0.95637L9.10008 0.95637ZM7.12008 10.2714C7.12008 9.32637 7.84008 8.87637 9.01008 8.38137L17.3351 4.96137C19.7651 3.97137 20.5751 4.19637 22.1951 6.49137L29.0351 16.3014C31.3751 19.6314 28.8551 22.5114 24.3101 20.2164L8.69508 12.2964C7.57008 11.7114 7.12008 11.0364 7.12008 10.2714Z" fill="white"/>
</svg>
