<svg width="54" height="59" viewBox="0 0 54 59" fill="none" xmlns="http://www.w3.org/2000/svg">
<g filter="url(#filter0_iii_0_1)">
<path d="M14.4876 0.582272C4.7376 0.582272 0.162598 6.80727 0.162598 15.2073L0.162598 47.5323C0.162598 56.9823 4.8876 58.7073 10.0626 58.7073C15.8376 58.7073 19.0626 56.4573 19.0626 51.2073C19.0626 47.5323 17.7876 44.6823 14.7126 41.1573L5.4876 30.8073C3.5376 28.6323 3.1626 25.3323 5.1876 23.0823C7.5126 20.5323 11.0376 20.6823 12.9126 23.0823L21.5376 34.4073C26.5626 41.0073 30.9876 43.6323 37.4376 43.6323C48.7626 43.6323 53.4876 35.1573 53.4876 23.9073C53.4876 8.68227 46.2126 0.582272 29.7876 0.582272L14.4876 0.582272ZM11.1876 16.1073C11.1876 14.5323 12.3876 13.7823 14.3376 12.9573L28.2126 7.25728C32.2626 5.60727 33.6126 5.98227 36.3126 9.80727L47.7126 26.1573C51.6126 31.7073 47.4126 36.5073 39.8376 32.6823L13.8126 19.4823C11.9376 18.5073 11.1876 17.3823 11.1876 16.1073Z" fill="black" fill-opacity="0.2"/>
</g>
<defs>
<filter id="filter0_iii_0_1" x="-3.8374" y="-5.19995" width="402.625" height="72.9072" filterUnits="userSpaceOnUse" color-interpolation-filters="sRGB">
<feFlood flood-opacity="0" result="BackgroundImageFix"/>
<feBlend mode="normal" in="SourceGraphic" in2="BackgroundImageFix" result="shape"/>
<feColorMatrix in="SourceAlpha" type="matrix" values="0 0 0 0 0 0 0 0 0 0 0 0 0 0 0 0 0 0 127 0" result="hardAlpha"/>
<feOffset dy="-2"/>
<feGaussianBlur stdDeviation="5"/>
<feComposite in2="hardAlpha" operator="arithmetic" k2="-1" k3="1"/>
<feColorMatrix type="matrix" values="0 0 0 0 0.0196078 0 0 0 0 0.843137 0 0 0 0 0.843137 0 0 0 1 0"/>
<feBlend mode="normal" in2="shape" result="effect1_innerShadow_0_1"/>
<feColorMatrix in="SourceAlpha" type="matrix" values="0 0 0 0 0 0 0 0 0 0 0 0 0 0 0 0 0 0 127 0" result="hardAlpha"/>
<feOffset dx="3" dy="10"/>
<feGaussianBlur stdDeviation="4.5"/>
<feComposite in2="hardAlpha" operator="arithmetic" k2="-1" k3="1"/>
<feColorMatrix type="matrix" values="0 0 0 0 0.568627 0 0 0 0 0.0705882 0 0 0 0 0.160235 0 0 0 1 0"/>
<feBlend mode="normal" in2="effect1_innerShadow_0_1" result="effect2_innerShadow_0_1"/>
<feColorMatrix in="SourceAlpha" type="matrix" values="0 0 0 0 0 0 0 0 0 0 0 0 0 0 0 0 0 0 127 0" result="hardAlpha"/>
<feOffset dx="-4"/>
<feGaussianBlur stdDeviation="2.5"/>
<feComposite in2="hardAlpha" operator="arithmetic" k2="-1" k3="1"/>
<feColorMatrix type="matrix" values="0 0 0 0 1 0 0 0 0 0.546587 0 0 0 0 0.220833 0 0 0 1 0"/>
<feBlend mode="normal" in2="effect2_innerShadow_0_1" result="effect3_innerShadow_0_1"/>
</filter>
</defs>
</svg>
