<svg width="807" height="807" viewBox="0 0 807 807" fill="none" xmlns="http://www.w3.org/2000/svg" xmlns:xlink="http://www.w3.org/1999/xlink">
    <defs>
        <path id="enc-nav-path-element" d="M0.5,403.5a403,403 0 1,0 806,0a403,403 0 1,0 -806,0" stroke="red"/>
        <clipPath id="insideHeartOnly">
            <use xlink:href="#enc-nav-path-element"/>
        </clipPath>
    </defs>
    <use
            id="enc-nav-path"
            xlink:href="#enc-nav-path-element"
            stroke-width="100" stroke="red" fill="none"
            clip-path="url(#insideHeartOnly)"/>
</svg>
