<svg width="54" height="61" viewBox="0 0 54 61" fill="none" xmlns="http://www.w3.org/2000/svg">
<path d="M13.695 51.1997L46.6906 48.27C51.3049 47.855 53.612 49.2344 53.612 52.4082C53.612 54.9229 52.2082 56.8516 49.4006 58.1943C46.6174 59.5371 42.0153 60.2085 35.5944 60.2085C30.7604 60.2085 26.2072 59.7324 21.9348 58.7803C17.6623 57.8037 13.8903 56.4365 10.6188 54.6787C7.37177 52.8965 4.79608 50.6382 2.89178 47.9038C0.987488 45.1694 0.0353394 42.1421 0.0353394 38.8218C0.0353394 36.5757 0.670105 34.6958 1.93964 33.1821C3.23358 31.6685 4.89374 30.7651 6.9201 30.4722C8.97089 30.1548 11.2536 30.46 13.7682 31.3877L28.7829 37.54C29.6862 37.9307 30.4064 38.0527 30.9435 37.9062C31.5051 37.7598 31.9079 37.5034 32.152 37.1372C32.4206 36.771 32.4206 36.2949 32.152 35.709C31.9079 35.123 31.4318 34.5859 30.7238 34.0977L8.38495 18.5703C4.86932 16.0557 3.11151 13.4312 3.11151 10.6968C3.11151 8.89014 3.62421 7.33984 4.6496 6.0459C5.67499 4.72754 7.091 3.71436 8.89764 3.00635C10.7287 2.27393 12.7307 1.74902 14.9035 1.43164C17.0764 1.11426 19.4811 0.955566 22.1179 0.955566C27.0495 0.931152 31.9933 1.28516 36.9494 2.01758C41.9299 2.72559 45.5309 3.59229 47.7526 4.61768C49.8278 5.59424 51.3415 6.75391 52.2936 8.09668C53.2702 9.41504 53.7097 11.1118 53.612 13.187C53.4899 15.4819 52.5866 16.9956 50.902 17.728C49.2175 18.4604 46.7639 18.2896 43.5412 17.2153L12.8893 6.48535C11.6686 6.07031 10.631 6.05811 9.77655 6.44873C8.92206 6.83936 8.27509 7.37646 7.83563 8.06006C7.39618 8.71924 7.17645 9.354 7.17645 9.96436C7.17645 11.0142 7.45721 11.8931 8.01874 12.6011C8.58026 13.2847 9.67889 13.895 11.3146 14.4321L40.5383 23.7339C45.6408 25.3452 48.1921 28.1528 48.1921 32.1567C48.1921 34.1587 47.5817 35.8677 46.361 37.2837C45.1403 38.6997 43.1994 39.5664 40.5383 39.8838L13.695 43.1797C9.49579 43.7168 7.39618 45.145 7.39618 47.4644C7.39618 48.6118 7.93329 49.564 9.00751 50.3208C10.1061 51.0776 11.6686 51.3706 13.695 51.1997Z" fill="white"/>
</svg>
