<svg width="52" height="61" viewBox="0 0 52 61" fill="none" xmlns="http://www.w3.org/2000/svg">
<path d="M41.82 41.605L26.5124 25.0156C25.5602 23.9658 24.8889 22.8916 24.4982 21.793C24.1076 20.6699 23.9855 19.6689 24.132 18.79C24.3029 17.9111 24.6813 17.1543 25.2673 16.5195C25.8776 15.8604 26.61 15.4209 27.4645 15.2012C28.3434 14.9814 29.3688 15.0547 30.5407 15.4209C31.7126 15.7627 32.8967 16.4097 34.093 17.3618L42.8088 24.4297C43.2971 24.8203 43.7853 25.0645 44.2736 25.1621C44.7863 25.2354 45.2014 25.2109 45.5187 25.0889C45.8361 24.9668 46.1047 24.7959 46.3244 24.5762C47.4474 23.4531 47.3986 22.1836 46.1779 20.7676L41.82 15.7139C39.9157 13.5166 38.6096 11.8687 37.9016 10.77C37.218 9.64697 36.8762 8.45068 36.8762 7.18115C36.8762 5.3501 37.4865 3.84863 38.7072 2.67676C39.9279 1.48047 41.5881 0.882324 43.6877 0.882324C46.3244 0.882324 48.2287 1.7002 49.4006 3.33594C50.5969 4.94727 51.195 7.42529 51.195 10.77V38.895C51.195 53.0552 42.8942 60.1353 26.2927 60.1353C21.2634 60.1353 16.82 59.1953 12.9626 57.3154C9.12958 55.4355 6.13885 52.7378 3.99042 49.2222C1.86639 45.6821 0.804382 41.5684 0.804382 36.8809V12.5645C0.804382 8.4873 1.5246 5.521 2.96503 3.66553C4.42987 1.81006 6.62714 0.882324 9.55682 0.882324C11.4611 0.882324 13.0724 1.3584 14.3908 2.31055C15.7336 3.2627 16.6491 4.44678 17.1374 5.86279C17.6257 7.27881 17.7722 8.80469 17.5768 10.4404C17.3815 12.0518 16.8444 13.5166 15.9655 14.835L6.737 28.458C5.22333 30.7529 4.67401 32.8647 5.08905 34.7935C5.5285 36.6978 6.87128 38.2114 9.11737 39.3345L30.4308 50.2842C36.5344 53.4092 40.758 53.3115 43.1017 49.9912C43.7853 49.0146 44.1149 47.9648 44.0905 46.8418C44.0905 45.6943 43.8708 44.7056 43.4313 43.8755C43.0163 43.0454 42.4792 42.2886 41.82 41.605Z" fill="white"/>
</svg>
