<svg width="51" height="61" viewBox="0 0 51 61" fill="none" xmlns="http://www.w3.org/2000/svg">
<g filter="url(#filter0_iii_1_79)">
<path d="M41.52 41.605L26.2124 25.0156C25.2603 23.9658 24.5889 22.8916 24.1982 21.793C23.8076 20.6699 23.6855 19.6689 23.832 18.79C24.0029 17.9111 24.3813 17.1543 24.9673 16.5195C25.5776 15.8604 26.3101 15.4209 27.1646 15.2012C28.0435 14.9814 29.0688 15.0547 30.2407 15.4209C31.4126 15.7627 32.5967 16.4097 33.793 17.3618L42.5088 24.4297C42.9971 24.8203 43.4854 25.0645 43.9736 25.1621C44.4863 25.2354 44.9014 25.2109 45.2188 25.0889C45.5361 24.9668 45.8047 24.7959 46.0244 24.5762C47.1475 23.4531 47.0986 22.1836 45.8779 20.7676L41.52 15.7139C39.6157 13.5166 38.3096 11.8687 37.6016 10.77C36.918 9.64697 36.5762 8.45068 36.5762 7.18115C36.5762 5.3501 37.1865 3.84863 38.4072 2.67676C39.6279 1.48047 41.2881 0.882324 43.3877 0.882324C46.0244 0.882324 47.9287 1.7002 49.1006 3.33594C50.2969 4.94727 50.895 7.42529 50.895 10.77V38.895C50.895 53.0552 42.5942 60.1353 25.9927 60.1353C20.9634 60.1353 16.52 59.1953 12.6626 57.3154C8.82959 55.4355 5.83887 52.7378 3.69043 49.2222C1.56641 45.6821 0.504395 41.5684 0.504395 36.8809V12.5645C0.504395 8.4873 1.22461 5.521 2.66504 3.66553C4.12988 1.81006 6.32715 0.882324 9.25684 0.882324C11.1611 0.882324 12.7725 1.3584 14.0908 2.31055C15.4336 3.2627 16.3491 4.44678 16.8374 5.86279C17.3257 7.27881 17.4722 8.80469 17.2769 10.4404C17.0815 12.0518 16.5444 13.5166 15.6655 14.835L6.43701 28.458C4.92334 30.7529 4.37402 32.8647 4.78906 34.7935C5.22852 36.6978 6.57129 38.2114 8.81738 39.3345L30.1309 50.2842C36.2344 53.4092 40.458 53.3115 42.8018 49.9912C43.4854 49.0146 43.8149 47.9648 43.7905 46.8418C43.7905 45.6943 43.5708 44.7056 43.1313 43.8755C42.7163 43.0454 42.1792 42.2886 41.52 41.605Z" fill="black" fill-opacity="0.2"/>
</g>
<defs>
<filter id="filter0_iii_1_79" x="-3.49561" y="-1.11768" width="57.3906" height="70.2529" filterUnits="userSpaceOnUse" color-interpolation-filters="sRGB">
<feFlood flood-opacity="0" result="BackgroundImageFix"/>
<feBlend mode="normal" in="SourceGraphic" in2="BackgroundImageFix" result="shape"/>
<feColorMatrix in="SourceAlpha" type="matrix" values="0 0 0 0 0 0 0 0 0 0 0 0 0 0 0 0 0 0 127 0" result="hardAlpha"/>
<feOffset dy="-2"/>
<feGaussianBlur stdDeviation="5"/>
<feComposite in2="hardAlpha" operator="arithmetic" k2="-1" k3="1"/>
<feColorMatrix type="matrix" values="0 0 0 0 0.0196078 0 0 0 0 0.843137 0 0 0 0 0.843137 0 0 0 1 0"/>
<feBlend mode="normal" in2="shape" result="effect1_innerShadow_1_79"/>
<feColorMatrix in="SourceAlpha" type="matrix" values="0 0 0 0 0 0 0 0 0 0 0 0 0 0 0 0 0 0 127 0" result="hardAlpha"/>
<feOffset dx="3" dy="10"/>
<feGaussianBlur stdDeviation="4.5"/>
<feComposite in2="hardAlpha" operator="arithmetic" k2="-1" k3="1"/>
<feColorMatrix type="matrix" values="0 0 0 0 0.568627 0 0 0 0 0.0705882 0 0 0 0 0.160235 0 0 0 1 0"/>
<feBlend mode="normal" in2="effect1_innerShadow_1_79" result="effect2_innerShadow_1_79"/>
<feColorMatrix in="SourceAlpha" type="matrix" values="0 0 0 0 0 0 0 0 0 0 0 0 0 0 0 0 0 0 127 0" result="hardAlpha"/>
<feOffset dx="-4"/>
<feGaussianBlur stdDeviation="2.5"/>
<feComposite in2="hardAlpha" operator="arithmetic" k2="-1" k3="1"/>
<feColorMatrix type="matrix" values="0 0 0 0 1 0 0 0 0 0.546587 0 0 0 0 0.220833 0 0 0 1 0"/>
<feBlend mode="normal" in2="effect2_innerShadow_1_79" result="effect3_innerShadow_1_79"/>
</filter>
</defs>
</svg>
