<svg width="38" height="59" viewBox="0 0 38 59" fill="none" xmlns="http://www.w3.org/2000/svg">
<path d="M1.09735 44.4614L5.5285 12.7109C6.09003 8.70703 7.12762 5.74072 8.6413 3.81201C10.1794 1.85889 12.218 0.882324 14.757 0.882324C17.1252 0.882324 19.2248 1.63916 21.0558 3.15283C22.9113 4.6665 23.8391 6.75391 23.8391 9.41504C23.8391 11.4902 23.1555 13.8218 21.7883 16.4097L5.96796 45.8164C4.52753 48.4043 3.80731 50.3452 3.80731 51.6392C3.80731 52.5425 4.11249 53.3115 4.72284 53.9463C5.3576 54.5566 6.02899 54.8618 6.737 54.8618C7.46942 54.8618 8.36053 54.5322 9.41034 53.873C10.4601 53.1895 12.0959 51.9932 14.3176 50.2842L21.2023 44.9741C23.9123 42.9233 26.488 41.8979 28.9294 41.8979C31.2975 41.8979 33.2629 42.7646 34.8254 44.498C36.3879 46.2314 37.1691 48.2212 37.1691 50.4673C37.1691 52.8354 36.2414 54.8496 34.3859 56.5098C32.5305 58.1699 29.7595 59 26.0729 59H11.1682C7.16425 59 4.42987 58.231 2.96503 56.6929C1.5246 55.1548 0.804382 52.4204 0.804382 48.4897C0.804382 47.147 0.902039 45.8042 1.09735 44.4614Z" fill="white"/>
</svg>
