<svg width="57" height="61" viewBox="0 0 57 61" fill="none" xmlns="http://www.w3.org/2000/svg">
<g filter="url(#filter0_iii_2_142)">
<path d="M12.5456 41.9712L31.9182 41.5317C34.2863 41.4829 36.0807 41.1289 37.3015 40.4697C38.5466 39.8105 39.2668 38.5898 39.4621 36.8076L42.6848 10.2573C42.9289 8.20654 42.6115 6.59521 41.7326 5.42334C40.8537 4.25146 39.6208 3.81201 38.0339 4.10498C37.3015 4.25146 36.569 4.64209 35.8366 5.27686C35.1286 5.88721 34.4206 6.76611 33.7126 7.91357C33.029 9.03662 32.5529 9.85449 32.2844 10.3672C32.0158 10.8555 31.613 11.6367 31.0759 12.7109L21.9938 31.3145C21.237 32.8525 20.2604 34.0977 19.0641 35.0498C17.8923 35.9775 16.7936 36.5757 15.7682 36.8442C14.7673 37.1128 13.7175 37.2471 12.6188 37.2471C10.3972 37.2471 8.50507 36.4414 6.94257 34.8301C5.38007 33.2188 4.59882 31.2534 4.59882 28.9341C4.59882 26.0532 6.50311 23.0747 10.3117 19.9985L25.363 7.98682C28.9274 5.15479 31.5886 3.2627 33.3464 2.31055C35.1286 1.3584 37.1672 0.882324 39.4621 0.882324C41.6838 0.882324 43.5392 1.62695 45.0285 3.11621C46.5178 4.58105 47.5187 6.60742 48.0314 9.19531L54.843 45.2671C55.673 49.6616 55.3557 53.2383 53.8908 55.9971C52.4504 58.7559 49.8747 60.1353 46.1638 60.1353C43.2341 60.1353 40.988 59.3296 39.4255 57.7183C37.863 56.1069 37.0817 54.0806 37.0817 51.6392V47.7573C37.0817 45.7554 36.6057 44.5591 35.6535 44.1685C34.7258 43.7778 33.6027 44.1685 32.2844 45.3403L24.9235 51.6392C24.7038 51.8101 24.1789 52.2617 23.3488 52.9941C22.5187 53.7266 21.884 54.2759 21.4445 54.6421C21.0051 55.0083 20.3459 55.521 19.467 56.1802C18.6125 56.8394 17.8434 57.3643 17.1599 57.7549C16.5007 58.1211 15.7438 58.5117 14.8893 58.9268C14.0349 59.3418 13.1804 59.647 12.3259 59.8423C11.4714 60.0376 10.6169 60.1353 9.76239 60.1353C8.61493 60.1353 7.5163 59.9644 6.46649 59.6226C5.41669 59.2808 4.42792 58.7559 3.50018 58.0479C2.59686 57.3398 1.87665 56.3511 1.33954 55.0815C0.802429 53.7876 0.533875 52.2983 0.533875 50.6138C0.533875 47.7817 1.64471 45.6577 3.86639 44.2417C6.08807 42.8013 8.98114 42.0444 12.5456 41.9712Z" fill="black" fill-opacity="0.2"/>
</g>
<defs>
<filter id="filter0_iii_2_142" x="-3.46613" y="-1.11768" width="62.5542" height="70.2529" filterUnits="userSpaceOnUse" color-interpolation-filters="sRGB">
<feFlood flood-opacity="0" result="BackgroundImageFix"/>
<feBlend mode="normal" in="SourceGraphic" in2="BackgroundImageFix" result="shape"/>
<feColorMatrix in="SourceAlpha" type="matrix" values="0 0 0 0 0 0 0 0 0 0 0 0 0 0 0 0 0 0 127 0" result="hardAlpha"/>
<feOffset dy="-2"/>
<feGaussianBlur stdDeviation="5"/>
<feComposite in2="hardAlpha" operator="arithmetic" k2="-1" k3="1"/>
<feColorMatrix type="matrix" values="0 0 0 0 0.0196078 0 0 0 0 0.843137 0 0 0 0 0.843137 0 0 0 1 0"/>
<feBlend mode="normal" in2="shape" result="effect1_innerShadow_2_142"/>
<feColorMatrix in="SourceAlpha" type="matrix" values="0 0 0 0 0 0 0 0 0 0 0 0 0 0 0 0 0 0 127 0" result="hardAlpha"/>
<feOffset dx="3" dy="10"/>
<feGaussianBlur stdDeviation="4.5"/>
<feComposite in2="hardAlpha" operator="arithmetic" k2="-1" k3="1"/>
<feColorMatrix type="matrix" values="0 0 0 0 0.568627 0 0 0 0 0.0705882 0 0 0 0 0.160235 0 0 0 1 0"/>
<feBlend mode="normal" in2="effect1_innerShadow_2_142" result="effect2_innerShadow_2_142"/>
<feColorMatrix in="SourceAlpha" type="matrix" values="0 0 0 0 0 0 0 0 0 0 0 0 0 0 0 0 0 0 127 0" result="hardAlpha"/>
<feOffset dx="-4"/>
<feGaussianBlur stdDeviation="2.5"/>
<feComposite in2="hardAlpha" operator="arithmetic" k2="-1" k3="1"/>
<feColorMatrix type="matrix" values="0 0 0 0 1 0 0 0 0 0.546587 0 0 0 0 0.220833 0 0 0 1 0"/>
<feBlend mode="normal" in2="effect2_innerShadow_2_142" result="effect3_innerShadow_2_142"/>
</filter>
</defs>
</svg>
