<svg width="26" height="61" viewBox="0 0 26 61" fill="none" xmlns="http://www.w3.org/2000/svg">
<path d="M0.302917 18.6436C0.302917 17.7646 1.47479 15.9702 3.81854 13.2603L12.3146 3.48242C13.8283 1.74902 15.7936 0.882324 18.2106 0.882324C20.237 0.882324 21.9948 1.5293 23.4841 2.82324C24.9733 4.11719 25.718 5.83838 25.718 7.98682C25.718 9.96436 25.1808 11.5269 24.1066 12.6743C23.0568 13.7974 21.5432 14.7129 19.5656 15.4209L11.3259 18.2773C10.3737 18.5703 9.89764 19.144 9.89764 19.9985C9.89764 20.9507 10.5446 21.3535 11.8386 21.207L16.9655 20.5845C19.4069 20.2915 21.3234 20.6943 22.715 21.793C24.131 22.8672 24.7902 24.3442 24.6926 26.2241C24.5949 28.0796 23.7404 29.9351 22.1291 31.7905L7.81024 48.1235C6.76044 49.2954 6.23553 50.1987 6.23553 50.8335C6.23553 51.6147 6.50409 52.2495 7.0412 52.7378C7.60272 53.2017 8.22528 53.2871 8.90887 52.9941L17.9177 49.1123C18.7233 48.7705 19.5168 48.563 20.298 48.4897C21.1037 48.3921 21.8605 48.4531 22.5685 48.6729C23.2766 48.8926 23.8625 49.332 24.3264 49.9912C24.8146 50.6504 25.1076 51.5049 25.2053 52.5547C25.3762 54.1416 24.9123 55.5332 23.8137 56.7295C22.715 57.9014 21.299 58.7559 19.5656 59.293C17.8322 59.8545 15.9645 60.1353 13.9626 60.1353C9.76337 60.1353 6.6994 58.8901 4.77069 56.3999C2.86639 53.8853 2.42694 50.7236 3.45233 46.915L9.53143 24.7227C9.67792 24.21 9.75116 23.7583 9.75116 23.3677C9.75116 22.5376 9.44598 21.9517 8.83563 21.6099C8.22528 21.2437 7.28534 21.0605 6.01581 21.0605H2.79315C1.133 21.0605 0.302917 20.2549 0.302917 18.6436Z" fill="white"/>
</svg>
