<svg width="55" height="61" viewBox="0 0 55 61" fill="none" xmlns="http://www.w3.org/2000/svg">
<g filter="url(#filter0_iii_1_123)">
<path d="M14.395 51.1997L47.3906 48.27C52.0049 47.855 54.312 49.2344 54.312 52.4082C54.312 54.9229 52.9082 56.8516 50.1006 58.1943C47.3174 59.5371 42.7153 60.2085 36.2944 60.2085C31.4604 60.2085 26.9072 59.7324 22.6348 58.7803C18.3623 57.8037 14.5903 56.4365 11.3188 54.6787C8.07178 52.8965 5.49609 50.6382 3.5918 47.9038C1.6875 45.1694 0.735352 42.1421 0.735352 38.8218C0.735352 36.5757 1.37012 34.6958 2.63965 33.1821C3.93359 31.6685 5.59375 30.7651 7.62012 30.4722C9.6709 30.1548 11.9536 30.46 14.4683 31.3877L29.4829 37.54C30.3862 37.9307 31.1064 38.0527 31.6436 37.9062C32.2051 37.7598 32.6079 37.5034 32.8521 37.1372C33.1206 36.771 33.1206 36.2949 32.8521 35.709C32.6079 35.123 32.1318 34.5859 31.4238 34.0977L9.08496 18.5703C5.56934 16.0557 3.81152 13.4312 3.81152 10.6968C3.81152 8.89014 4.32422 7.33984 5.34961 6.0459C6.375 4.72754 7.79102 3.71436 9.59766 3.00635C11.4287 2.27393 13.4307 1.74902 15.6035 1.43164C17.7764 1.11426 20.1812 0.955566 22.8179 0.955566C27.7495 0.931152 32.6934 1.28516 37.6494 2.01758C42.6299 2.72559 46.231 3.59229 48.4526 4.61768C50.5278 5.59424 52.0415 6.75391 52.9937 8.09668C53.9702 9.41504 54.4097 11.1118 54.312 13.187C54.1899 15.4819 53.2866 16.9956 51.6021 17.728C49.9175 18.4604 47.4639 18.2896 44.2412 17.2153L13.5894 6.48535C12.3687 6.07031 11.3311 6.05811 10.4766 6.44873C9.62207 6.83936 8.9751 7.37646 8.53564 8.06006C8.09619 8.71924 7.87646 9.354 7.87646 9.96436C7.87646 11.0142 8.15723 11.8931 8.71875 12.6011C9.28027 13.2847 10.3789 13.895 12.0146 14.4321L41.2383 23.7339C46.3408 25.3452 48.8921 28.1528 48.8921 32.1567C48.8921 34.1587 48.2817 35.8677 47.061 37.2837C45.8403 38.6997 43.8994 39.5664 41.2383 39.8838L14.395 43.1797C10.1958 43.7168 8.09619 45.145 8.09619 47.4644C8.09619 48.6118 8.6333 49.564 9.70752 50.3208C10.8062 51.0776 12.3687 51.3706 14.395 51.1997Z" fill="black" fill-opacity="0.2"/>
</g>
<defs>
<filter id="filter0_iii_1_123" x="-3.26465" y="-1.08105" width="60.7231" height="70.2896" filterUnits="userSpaceOnUse" color-interpolation-filters="sRGB">
<feFlood flood-opacity="0" result="BackgroundImageFix"/>
<feBlend mode="normal" in="SourceGraphic" in2="BackgroundImageFix" result="shape"/>
<feColorMatrix in="SourceAlpha" type="matrix" values="0 0 0 0 0 0 0 0 0 0 0 0 0 0 0 0 0 0 127 0" result="hardAlpha"/>
<feOffset dy="-2"/>
<feGaussianBlur stdDeviation="5"/>
<feComposite in2="hardAlpha" operator="arithmetic" k2="-1" k3="1"/>
<feColorMatrix type="matrix" values="0 0 0 0 0.0196078 0 0 0 0 0.843137 0 0 0 0 0.843137 0 0 0 1 0"/>
<feBlend mode="normal" in2="shape" result="effect1_innerShadow_1_123"/>
<feColorMatrix in="SourceAlpha" type="matrix" values="0 0 0 0 0 0 0 0 0 0 0 0 0 0 0 0 0 0 127 0" result="hardAlpha"/>
<feOffset dx="3" dy="10"/>
<feGaussianBlur stdDeviation="4.5"/>
<feComposite in2="hardAlpha" operator="arithmetic" k2="-1" k3="1"/>
<feColorMatrix type="matrix" values="0 0 0 0 0.568627 0 0 0 0 0.0705882 0 0 0 0 0.160235 0 0 0 1 0"/>
<feBlend mode="normal" in2="effect1_innerShadow_1_123" result="effect2_innerShadow_1_123"/>
<feColorMatrix in="SourceAlpha" type="matrix" values="0 0 0 0 0 0 0 0 0 0 0 0 0 0 0 0 0 0 127 0" result="hardAlpha"/>
<feOffset dx="-4"/>
<feGaussianBlur stdDeviation="2.5"/>
<feComposite in2="hardAlpha" operator="arithmetic" k2="-1" k3="1"/>
<feColorMatrix type="matrix" values="0 0 0 0 1 0 0 0 0 0.546587 0 0 0 0 0.220833 0 0 0 1 0"/>
<feBlend mode="normal" in2="effect2_innerShadow_1_123" result="effect3_innerShadow_1_123"/>
</filter>
</defs>
</svg>
