<svg width="60" height="61" viewBox="0 0 60 61" fill="none" xmlns="http://www.w3.org/2000/svg">
<path d="M12.4865 0.882324C14.3176 0.882324 15.7458 1.32178 16.7712 2.20068C17.7966 3.07959 18.3581 4.19043 18.4557 5.5332C18.5778 6.87598 18.3459 8.35303 17.7599 9.96436C17.174 11.5757 16.2707 13.1016 15.05 14.542L13.8415 15.9336C11.4733 18.8633 10.7775 21.0972 11.7541 22.6353C12.218 23.3921 12.7307 23.9048 13.2922 24.1733C13.8781 24.4175 14.5373 24.4297 15.2697 24.21C16.0021 23.9658 16.7224 23.6362 17.4304 23.2212C18.1384 22.7817 19.0173 22.1592 20.0671 21.3535L39.6594 6.48535C42.3449 4.45898 44.591 3.01855 46.3976 2.16406C48.2287 1.30957 50.2307 0.882324 52.4035 0.882324C54.4787 0.882324 56.1755 1.85889 57.4938 3.81201C58.8122 5.76514 59.2883 7.88916 58.9221 10.1841C58.4826 12.7231 57.4328 14.6396 55.7726 15.9336C54.1369 17.2031 51.5612 18.2285 48.0456 19.0098L24.5715 24.1367C24.3517 24.1855 23.9733 24.2588 23.4362 24.3564C22.8991 24.4541 22.4963 24.5396 22.2277 24.6128C21.9592 24.6616 21.5807 24.7471 21.0925 24.8691C20.6042 24.9668 20.2258 25.0645 19.9572 25.1621C19.6887 25.2598 19.3713 25.394 19.0051 25.5649C18.6389 25.7358 18.3459 25.9067 18.1262 26.0776C17.9308 26.2485 17.7477 26.4561 17.5768 26.7002C17.4304 26.9199 17.3327 27.1641 17.2839 27.4326C16.9421 29.4102 17.8942 30.936 20.1403 32.0103L46.2512 44.5347C47.301 45.0474 48.2409 44.8765 49.071 44.022C49.9255 43.1675 50.1818 42.1909 49.84 41.0923L47.0568 32.0103C46.5685 30.3989 46.6906 29.105 47.423 28.1284C48.1799 27.1274 49.1931 26.5903 50.4626 26.5171C51.903 26.4683 53.1237 26.9688 54.1247 28.0186C55.1501 29.0684 55.5285 30.5698 55.2599 32.5229L52.55 51.2729C52.1105 54.2759 51.0119 56.5098 49.2541 57.9746C47.4963 59.415 45.3967 60.1353 42.9553 60.1353C42.3449 60.1353 41.759 60.0742 41.1974 59.9521C40.6603 59.8545 40.1721 59.7324 39.7326 59.5859C39.3176 59.4395 38.8659 59.1953 38.3776 58.8535C37.8893 58.5117 37.4865 58.2188 37.1691 57.9746C36.8517 57.7061 36.4245 57.291 35.8874 56.7295C35.3747 56.1436 34.9719 55.6919 34.6789 55.3745C34.4103 55.0327 33.9465 54.4712 33.2873 53.6899C32.6525 52.8843 32.152 52.2739 31.7858 51.8589L11.2414 27.4326C10.5334 26.6025 9.76434 26.1021 8.93427 25.9312C8.1286 25.7603 7.48163 25.8945 6.99335 26.334C6.50507 26.749 6.18768 27.3105 6.0412 28.0186C5.89471 28.7266 6.12665 29.5566 6.737 30.5088L16.112 44.8276C17.8454 47.3911 18.468 50.1621 17.9797 53.1406C17.6379 55.0938 16.6125 56.7539 14.9035 58.1211C13.1945 59.4639 11.0705 60.1353 8.53143 60.1353C5.8703 60.1353 3.86835 59.2319 2.52557 57.4253C1.1828 55.5942 0.60907 53.043 0.804382 49.7715L3.4411 10.5503C3.68524 7.22998 4.6496 4.78857 6.33417 3.22607C8.04315 1.66357 10.0939 0.882324 12.4865 0.882324Z" fill="white"/>
</svg>
