<svg width="77" height="61" viewBox="0 0 77 61" fill="none" xmlns="http://www.w3.org/2000/svg">
<path d="M47.5991 36.8809L45.6582 23.5142C45.1699 20.0962 45.231 16.9712 45.8413 14.1392C46.4517 11.2827 47.5137 8.89014 49.0273 6.96143C50.5654 5.03271 52.5063 3.54346 54.8501 2.49365C57.2183 1.41943 59.8794 0.882324 62.8335 0.882324C65.2749 0.882324 67.3013 1.23633 68.9126 1.94434C70.5239 2.62793 71.8789 3.86084 72.9775 5.64307C74.1006 7.40088 74.9062 9.75684 75.3945 12.7109C75.8828 15.665 76.1392 19.4248 76.1636 23.9902L76.3101 48.9658C76.3345 50.9922 76.0781 52.7622 75.541 54.2759C75.0039 55.7896 74.2837 56.9614 73.3804 57.7915C72.4771 58.5972 71.5127 59.1831 70.4873 59.5493C69.4619 59.9399 68.3877 60.1353 67.2646 60.1353C65.7754 60.1353 64.4692 59.8667 63.3462 59.3296C62.2231 58.7925 61.3564 58.0845 60.7461 57.2056C60.1357 56.3022 59.6841 55.3745 59.3911 54.4224C59.1226 53.4458 58.9883 52.4448 58.9883 51.4194C58.9883 50.6626 59.0859 49.7471 59.2812 48.6729C59.501 47.5742 59.6963 46.6831 59.8672 45.9995C60.0625 45.3159 60.3677 44.2905 60.7827 42.9233C61.1978 41.5317 61.4297 40.7383 61.4785 40.543L69.938 10.6235C70.4751 8.646 70.1821 7.0835 69.0591 5.93604C67.9604 4.78857 66.6177 4.47119 65.0308 4.98389C63.4438 5.49658 62.333 6.80273 61.6982 8.90234L49.833 48.0503C48.6123 52.1519 47.2817 55.1914 45.8413 57.1689C44.4253 59.1465 42.5332 60.1353 40.165 60.1353C38.4072 60.1353 36.7471 59.3662 35.1846 57.8281C33.6465 56.2656 31.8887 53.5068 29.9111 49.5518L21.1953 32.3032C19.9746 29.8618 19.0713 27.0786 18.4854 23.9536C17.9238 20.8042 17.875 17.7646 18.3389 14.835L19.0347 10.5503C19.3032 8.74365 18.8394 7.32764 17.6431 6.30225C16.4712 5.27686 14.9575 4.76416 13.1021 4.76416C11.0513 4.76416 9.42773 5.45996 8.23145 6.85156C7.03516 8.21875 6.43701 10.001 6.43701 12.1982C6.43701 13.1504 6.60791 14.3345 6.94971 15.7505C7.31592 17.1665 7.69434 18.3628 8.08496 19.3394L18.4121 44.7544C19.2178 46.7075 19.6938 48.5996 19.8403 50.4307C20.0112 52.2617 19.8525 53.8975 19.3643 55.3379C18.9004 56.7783 18.0215 57.938 16.7275 58.8169C15.458 59.6958 13.8467 60.1353 11.8936 60.1353C10.3066 60.1353 8.90283 59.8789 7.68213 59.3662C6.46143 58.8779 5.44824 58.1333 4.64258 57.1323C3.86133 56.1313 3.21436 55.0327 2.70166 53.8364C2.18896 52.6401 1.79834 51.1997 1.52979 49.5151C1.28564 47.8306 1.11475 46.2192 1.01709 44.6812C0.919434 43.1431 0.870605 41.3608 0.870605 39.3345V23.5142C0.870605 17.9966 1.41992 13.541 2.51855 10.1475C3.61719 6.75391 5.15527 4.34912 7.13281 2.93311C9.11035 1.51709 11.6006 0.809082 14.6035 0.809082C21.0244 0.809082 25.7241 4.41016 28.7026 11.6123L40.8608 41.0923C41.8618 43.5337 43.2046 44.7544 44.8892 44.7544C47.5015 44.7544 48.4048 42.1299 47.5991 36.8809Z" fill="white"/>
</svg>
